Import data from the UK Air Pollution Networks — importUKAQ • openair
…
    Author

    David Carslaw, Trevor Davies, and Jack Davison

    Examples

# import a single site from the AURN
importUKAQ("my1", year = 2022)
#> # A tibble: 8,760 × 15
#>    source site     code  date                   co   nox   no2    no    o3   so2
#>    <chr>  <chr>    <chr> <dttm>              <dbl> <dbl> <dbl> <dbl> <dbl> <dbl>
#>  1 aurn   London … MY1   2022-01-01 00:00:00 0.244  65.4  33.3  21.0  17.2 0.266
#>  2 aurn   London … MY1   2022-01-01 01:00:00 0.338 117.   43.6  47.6  13.0 1.33 
#>  3 aurn   London … MY1   2022-01-01 02:00:00 0.291  76.7  33.7  28.1  18.8 0.532
#>  4 aurn   London … MY1   2022-01-01 03:00:00 0.291  90.8  37.5  34.7  21.0 0.798
#>  5 aurn   London … MY1   2022-01-01 04:00:00 0.244  93.7  33.1  39.5  20.2 0.798
#>  6 aurn   London … MY1   2022-01-01 05:00:00 0.210  85.3  34.2  33.4  21.8 0.798
#>  7 aurn   London … MY1   2022-01-01 06:00:00 0.186  63.7  27.3  23.7  21.0 0.266
#>  8 aurn   London … MY1   2022-01-01 07:00:00 0.210  67.9  31.2  23.9  21.0 0.532
#>  9 aurn   London … MY1   2022-01-01 08:00:00 0.198  63.1  30.2  21.6  20.8 0.532
#> 10 aurn   London … MY1   2022-01-01 09:00:00 0.210  73.8  33.3  26.3  23.0 0.532
#> # ℹ 8,750 more rows
#> # ℹ 5 more variables: pm10 <dbl>, pm2.5 <dbl>, ws <dbl>, wd <dbl>,
#> #   air_temp <dbl>

# import sites from another network
importUKAQ(c("bn1", "bn2"), year = 2022, source = "aqe")
#> Importing AQ Data ■■■■■■■■■■■■■■■■                  50% |  ETA:  2s
#> # A tibble: 17,520 × 8
#>    source site            code  date                  nox   no2    no  pm10
#>    <chr>  <chr>           <chr> <dttm>              <dbl> <dbl> <dbl> <dbl>
#>  1 aqe    Barnet Tally Ho BN1   2022-01-01 00:00:00 33.9  21.4  8.15   32.2
#>  2 aqe    Barnet Tally Ho BN1   2022-01-01 01:00:00 15.3  10.1  3.43   22.7
#>  3 aqe    Barnet Tally Ho BN1   2022-01-01 02:00:00 14.2   9.10 3.30   17  
#>  4 aqe    Barnet Tally Ho BN1   2022-01-01 03:00:00  9.32  6.69 1.71   16.7
#>  5 aqe    Barnet Tally Ho BN1   2022-01-01 04:00:00  7.39  6.11 0.839  17.1
#>  6 aqe    Barnet Tally Ho BN1   2022-01-01 05:00:00 17.0  11.0  3.87   16.9
#>  7 aqe    Barnet Tally Ho BN1   2022-01-01 06:00:00 20.8  12.1  5.66   16.3
#>  8 aqe    Barnet Tally Ho BN1   2022-01-01 07:00:00 21.9  14.8  4.68   11.3
#>  9 aqe    Barnet Tally Ho BN1   2022-01-01 08:00:00 22.7  14.7  5.22   11.9
#> 10 aqe    Barnet Tally Ho BN1   2022-01-01 09:00:00 30.0  17.7  7.98   18.2
#> # ℹ 17,510 more rows

# import sites across multiple networks
importUKAQ(c("my1", "bn1", "bn2"),
  year = 2022,
  source = c("aurn", "aqe", "aqe")
)
#> Importing AQ Data ■■■■■■■■■■■                       33% |  ETA:  3s
#> Importing AQ Data ■■■■■■■■■■■■■■■■■■■■■             67% |  ETA:  2s
#> # A tibble: 26,280 × 15
#>    source site     code  date                  nox   no2    no  pm10    co    o3
#>    <chr>  <chr>    <chr> <dttm>              <dbl> <dbl> <dbl> <dbl> <dbl> <dbl>
#>  1 aqe    Barnet … BN1   2022-01-01 00:00:00 33.9  21.4  8.15   32.2    NA    NA
#>  2 aqe    Barnet … BN1   2022-01-01 01:00:00 15.3  10.1  3.43   22.7    NA    NA
#>  3 aqe    Barnet … BN1   2022-01-01 02:00:00 14.2   9.10 3.30   17      NA    NA
#>  4 aqe    Barnet … BN1   2022-01-01 03:00:00  9.32  6.69 1.71   16.7    NA    NA
#>  5 aqe    Barnet … BN1   2022-01-01 04:00:00  7.39  6.11 0.839  17.1    NA    NA
#>  6 aqe    Barnet … BN1   2022-01-01 05:00:00 17.0  11.0  3.87   16.9    NA    NA
#>  7 aqe    Barnet … BN1   2022-01-01 06:00:00 20.8  12.1  5.66   16.3    NA    NA
#>  8 aqe    Barnet … BN1   2022-01-01 07:00:00 21.9  14.8  4.68   11.3    NA    NA
#>  9 aqe    Barnet … BN1   2022-01-01 08:00:00 22.7  14.7  5.22   11.9    NA    NA
#> 10 aqe    Barnet … BN1   2022-01-01 09:00:00 30.0  17.7  7.98   18.2    NA    NA
#> # ℹ 26,270 more rows
#> # ℹ 5 more variables: so2 <dbl>, pm2.5 <dbl>, ws <dbl>, wd <dbl>,
#> #   air_temp <dbl>

# get "long" format hourly data with a ratification flag
importUKAQ(
  "card",
  source = "waqn",
  year = 2022,
  to_narrow = TRUE,
  ratified = TRUE
)
#> # A tibble: 70,080 × 10
#>    source date                site   code     ws    wd air_temp pollutant  value
#>    <chr>  <dttm>              <chr>  <chr> <dbl> <dbl>    <dbl> <chr>      <dbl>
#>  1 waqn   2022-01-01 00:00:00 Cardi… CARD    5.6  183.     10.6 co        0.0928
#>  2 waqn   2022-01-01 01:00:00 Cardi… CARD    8.3  198.     11.3 co        0.0843
#>  3 waqn   2022-01-01 02:00:00 Cardi… CARD    9.2  197      11.4 co        0.0854
#>  4 waqn   2022-01-01 03:00:00 Cardi… CARD    9.8  189.     11.3 co        0.0885
#>  5 waqn   2022-01-01 04:00:00 Cardi… CARD    9.2  188.     11.2 co        0.0949
#>  6 waqn   2022-01-01 05:00:00 Cardi… CARD    8.2  184.     11.1 co        0.0790
#>  7 waqn   2022-01-01 06:00:00 Cardi… CARD    7.6  178.     11.1 co        0.0632
#>  8 waqn   2022-01-01 07:00:00 Cardi… CARD    5.9  176.     11.2 co        0.0664
#>  9 waqn   2022-01-01 08:00:00 Cardi… CARD    4.4  174.     11   co        0.0601
#> 10 waqn   2022-01-01 09:00:00 Cardi… CARD    3.9  185.     10.7 co        0.0696
#> # ℹ 70,070 more rows
#> # ℹ 1 more variable: qc <lgl>

# import other data types, filtering by pollutant
importUKAQ(
  data_type = "annual",
  pollutant = c("no2", "pm2.5", "pm10"),
  source = c("aurn", "aqe")
)
#> # A tibble: 335 × 11
#>    source uka_code code  site        date                  no2 no2_capture  pm10
#>    <chr>  <fct>    <chr> <chr>       <dttm>              <dbl>       <dbl> <dbl>
#>  1 aurn   UKA00513 ABD7  Aberdeen U… 2022-01-01 00:00:00 26.6        0.994 NA   
#>  2 aurn   UKA00615 ABD8  Aberdeen W… 2022-01-01 00:00:00 24.3        0.997 NA   
#>  3 aurn   UKA00933 ABD9  Aberdeen E… 2022-01-01 00:00:00 16.5        0.995 11.3 
#>  4 aurn   UKA00451 ACTH  Auchencort… 2022-01-01 00:00:00 NA         NA      6.23
#>  5 aurn   UKA00137 AH    Aston Hill  2022-01-01 00:00:00  3.20       0.971 NA   
#>  6 aurn   UKA00541 ARM6  Armagh Roa… 2022-01-01 00:00:00 22.2        0.987 16.4 
#>  7 aurn   UKA00633 BAAR  Ballymena … 2022-01-01 00:00:00 15.8        0.914 NA   
#>  8 aurn   UKA00503 BALM  Ballymena … 2022-01-01 00:00:00 10.4        0.912 NA   
#>  9 aurn   UKA00353 BAR3  Barnsley G… 2022-01-01 00:00:00 12.8        0.952 NA   
#> 10 aurn   UKA00625 BBRD  Birkenhead… 2022-01-01 00:00:00 16.7        0.906 NA   
#> # ℹ 325 more rows
#> # ℹ 3 more variables: pm10_capture <dbl>, pm2.5 <dbl>, pm2.5_capture <dbl>
…
