Rolling regression for pollutant source characterisation. — runRegression • openair
…
Farren, N. J., Schmidt, C., Juchem, H., Pöhler, D., Wilde, S. E., Wagner, R.
L., Wilson, S., Shaw, M. D., & Carslaw, D. C. (2023). Emission ratio
determination from road vehicles using a range of remote emission sensing
techniques. Science of The Total Environment, 875.
https://doi.org/10.1016/j.scitotenv.2023.162621.

    Examples

# Just use part of a year of data
output <- runRegression(selectByDate(mydata, year = 2004, month = 1:3), 
x = "nox", y = "pm10", run.len = 3)

output
#> # A tibble: 2,073 × 12
#>    date                date_start          date_end            intercept   slope
#>    <dttm>              <dttm>              <dttm>                  <dbl>   <dbl>
#>  1 2004-01-01 01:00:00 2004-01-01 00:00:00 2004-01-01 02:00:00    47.4   -0.199 
#>  2 2004-01-01 02:00:00 2004-01-01 01:00:00 2004-01-01 03:00:00     2.15   0.0996
#>  3 2004-01-01 03:00:00 2004-01-01 02:00:00 2004-01-01 04:00:00     1.87   0.0898
#>  4 2004-01-01 04:00:00 2004-01-01 03:00:00 2004-01-01 05:00:00     2.39   0.0897
#>  5 2004-01-01 05:00:00 2004-01-01 04:00:00 2004-01-01 06:00:00   -10.6    0.297 
#>  6 2004-01-01 06:00:00 2004-01-01 05:00:00 2004-01-01 07:00:00    20.0   -0.167 
#>  7 2004-01-01 07:00:00 2004-01-01 06:00:00 2004-01-01 08:00:00     8.76   0.0129
#>  8 2004-01-01 08:00:00 2004-01-01 07:00:00 2004-01-01 09:00:00     5.81   0.0596
#>  9 2004-01-01 09:00:00 2004-01-01 08:00:00 2004-01-01 10:00:00     0.108  0.113 
#> 10 2004-01-01 10:00:00 2004-01-01 09:00:00 2004-01-01 11:00:00    -5.59   0.149 
#> # ℹ 2,063 more rows
#> # ℹ 7 more variables: r_squared <dbl>, nox_1 <dbl>, nox_2 <dbl>, pm10_1 <dbl>,
#> #   pm10_2 <dbl>, delta_nox <dbl>, delta_pm10 <dbl>
…
